Chapter 4 Bootstrap overlap | Tidy Ranges Tutorial
…
Now combine with the per-iteration total count:

totals <- boots %>% 
  group_by(iter) %>%
  summarize(total=n()) %>%
  as_tibble()
null %>% dplyr::left_join(totals) %>%
  mutate(rate = any_hits/total)

## Joining, by = "iter"

## # A tibble: 30 × 4
##    iter  any_hits total    rate
##    <fct>    <int> <int>   <dbl>
##  1 1           59  6031 0.00978
##  2 2           58  5710 0.0102 
##  3 3           73  5758 0.0127 
##  4 4           50  5927 0.00844
##  5 5           37  5713 0.00648
##  6 6           59  5888 0.0100 
##  7 7           58  5910 0.00981
##  8 8           79  5836 0.0135 
##  9 9           59  5770 0.0102 
## 10 10          50  5991 0.00835
## # … with 20 more rows
…
