Chapter 9 Isoform analysis | Tidy Ranges Tutorial
…
The following is one way to identify which isoforms belong to
multi-isoform genes:

library(tibble)
tab <- txp %>%
  group_by(gene_id) %>%
  summarize(ntxp = n_distinct(tx_id)) %>%
  as_tibble()
tab

## # A tibble: 2,324 × 2
##    gene_id    ntxp
##    <chr>     <int>
##  1 10000         3
##  2 100126331     1
##  3 100126346     1
##  4 100126348     1
##  5 100126349     1
##  6 100128071     1
##  7 100128787     1
##  8 100129046     1
##  9 100129138     1
## 10 100129196     1
## # … with 2,314 more rows
…
Some of this code wouldn’t be necessary for TranscriptDb with more
details exons output, as with ensembldb.

txp_data <- txp %>%
  select(tx_id, gene_id, ntxp, the_one, .drop_ranges=TRUE) %>%
  as_tibble()
ids <- dplyr::left_join(tibble(tx_id = exons$tx_id),
                        txp_data, by="tx_id")
ids

## # A tibble: 67,595 × 4
##    tx_id gene_id    ntxp the_one
##    <chr> <chr>     <int>   <int>
##  1 1     100287102     3       1
##  2 1     100287102     3       1
##  3 1     100287102     3       1
##  4 2     100287102     3       0
##  5 2     100287102     3       0
##  6 2     100287102     3       0
##  7 3     100287102     3       0
##  8 3     100287102     3       0
##  9 3     100287102     3       0
## 10 11    729759        2       0
## # … with 67,585 more rows
…
