Chapter 8 Many genomic models | Tidy Ranges Tutorial
…
Next, we want to create a nested table, where tidySE objects are
grouped by tile and placed within a column of the table. There are a
few choices on how to proceed. One option would be to pivot_wider
the tidySE, as in this chunk below:

se %>%
  filter(.feature %in% rownames(se)[1:5]) %>%
  select(.sample, strain, time, .feature, logcounts) %>%
  pivot_wider(names_from = .feature, values_from = logcounts)

## tidySummarizedExperiment says: A data frame is returned for independent data analysis.

## # A tibble: 30 × 8
##    .sample    strain   time SPAC212.09c SPAC212.04c SPAC977.11 SPAC977.13c SPAC977.15
##    <chr>      <fct>   <dbl>       <dbl>       <dbl>      <dbl>       <dbl>      <dbl>
##  1 GSM1368276 wt     0.0833      -1.30       -1.51      -0.705      -1.85      -0.617
##  2 GSM1368277 wt     0.0833      -1.03       -2.01      -1.19       -1.27      -0.677
##  3 GSM1368278 wt     0.0833      -0.993      -2.11      -1.13       -1.88      -0.364
##  4 GSM1368279 wt     0.167       -0.802      -1.40      -0.690      -0.324     -0.966
##  5 GSM1368280 wt     0.167       -0.574      -1.06      -0.847      -0.399     -0.835
##  6 GSM1368281 wt     0.167       -0.685      -0.880     -0.685      -0.571     -0.779
##  7 GSM1368282 wt     0.333       -0.744      -1.56      -1.10       -1.45      -1.45 
##  8 GSM1368283 wt     0.333       -0.959      -1.58      -0.910      -0.828     -1.11 
##  9 GSM1368284 wt     0.333       -0.832      -1.51      -0.874      -1.07      -1.01 
## 10 GSM1368285 wt     0.667       -1.03       -1.49      -0.866      -1.74      -1.40 
## # ℹ 20 more rows

This ends up being a bit slower than just extracting the information
with assay and transposing it.

First let’s create our nested dataset:

library(purrr)
nested <- se %>%
  nest(data = -tile)
nested

## # A tibble: 56 × 2
##     tile data           
##    <int> <list>         
##  1     1 <RngdSmmE[,30]>
##  2     2 <RngdSmmE[,30]>
##  3     3 <RngdSmmE[,30]>
##  4     4 <RngdSmmE[,30]>
##  5     5 <RngdSmmE[,30]>
##  6     6 <RngdSmmE[,30]>
##  7     7 <RngdSmmE[,30]>
##  8     8 <RngdSmmE[,30]>
##  9     9 <RngdSmmE[,30]>
## 10    10 <RngdSmmE[,30]>
## # ℹ 46 more rows

Now, by row, extract out and transpose log scaled counts:

nested <- nested %>%
  mutate(trainx = map(data, \(d) {
    t(assay(d, "logcounts"))
  }))
nested

## # A tibble: 56 × 3
##     tile data            trainx         
##    <int> <list>          <list>         
##  1     1 <RngdSmmE[,30]> <dbl [30 × 20]>
##  2     2 <RngdSmmE[,30]> <dbl [30 × 54]>
##  3     3 <RngdSmmE[,30]> <dbl [30 × 41]>
##  4     4 <RngdSmmE[,30]> <dbl [30 × 54]>
##  5     5 <RngdSmmE[,30]> <dbl [30 × 44]>
##  6     6 <RngdSmmE[,30]> <dbl [30 × 53]>
##  7     7 <RngdSmmE[,30]> <dbl [30 × 45]>
##  8     8 <RngdSmmE[,30]> <dbl [30 × 47]>
##  9     9 <RngdSmmE[,30]> <dbl [30 × 41]>
## 10    10 <RngdSmmE[,30]> <dbl [30 × 59]>
## # ℹ 46 more rows

We fit an elastic net model (Friedman, Hastie, and Tibshirani 2010).

library(glmnet)
y <- colData(se)$time
nested <- nested %>%
  mutate(fit = map(trainx, \(x) {
    glmnet(x = x, y = y, alpha = .5, lambda = .1)
  }))
nested

## # A tibble: 56 × 4
##     tile data            trainx          fit    
##    <int> <list>          <list>          <list> 
##  1     1 <RngdSmmE[,30]> <dbl [30 × 20]> <elnet>
##  2     2 <RngdSmmE[,30]> <dbl [30 × 54]> <elnet>
##  3     3 <RngdSmmE[,30]> <dbl [30 × 41]> <elnet>
##  4     4 <RngdSmmE[,30]> <dbl [30 × 54]> <elnet>
##  5     5 <RngdSmmE[,30]> <dbl [30 × 44]> <elnet>
##  6     6 <RngdSmmE[,30]> <dbl [30 × 53]> <elnet>
##  7     7 <RngdSmmE[,30]> <dbl [30 × 45]> <elnet>
##  8     8 <RngdSmmE[,30]> <dbl [30 × 47]> <elnet>
##  9     9 <RngdSmmE[,30]> <dbl [30 × 41]> <elnet>
## 10    10 <RngdSmmE[,30]> <dbl [30 × 59]> <elnet>
## # ℹ 46 more rows

We use the elastic net model, to predict the design from the gene
expression (a variable number and set of genes per tile):

nested <- nested %>%
  mutate(
    pred = map2(trainx, fit, \(tr,fit) {
      predict(fit, newx = tr)[,1]
    }),
    n = map_dbl(data, nrow),
    in_r2 = map_dbl(pred, \(pred) cor(pred,y)^2)
  )
nested

## # A tibble: 56 × 7
##     tile data            trainx          fit     pred           n in_r2
##    <int> <list>          <list>          <list>  <list>     <dbl> <dbl>
##  1     1 <RngdSmmE[,30]> <dbl [30 × 20]> <elnet> <dbl [30]>    20 0.851
##  2     2 <RngdSmmE[,30]> <dbl [30 × 54]> <elnet> <dbl [30]>    54 0.908
##  3     3 <RngdSmmE[,30]> <dbl [30 × 41]> <elnet> <dbl [30]>    41 0.906
##  4     4 <RngdSmmE[,30]> <dbl [30 × 54]> <elnet> <dbl [30]>    54 0.880
##  5     5 <RngdSmmE[,30]> <dbl [30 × 44]> <elnet> <dbl [30]>    44 0.912
##  6     6 <RngdSmmE[,30]> <dbl [30 × 53]> <elnet> <dbl [30]>    53 0.892
##  7     7 <RngdSmmE[,30]> <dbl [30 × 45]> <elnet> <dbl [30]>    45 0.894
##  8     8 <RngdSmmE[,30]> <dbl [30 × 47]> <elnet> <dbl [30]>    47 0.856
##  9     9 <RngdSmmE[,30]> <dbl [30 × 41]> <elnet> <dbl [30]>    41 0.890
## 10    10 <RngdSmmE[,30]> <dbl [30 × 59]> <elnet> <dbl [30]>    59 0.894
## # ℹ 46 more rows
…
